<?xml version="1.0" encoding="UTF-8"?>
<!--Generator: Apple Native CoreSVG 175.5-->
<!DOCTYPE svg
PUBLIC "-//W3C//DTD SVG 1.1//EN"
       "http://www.w3.org/Graphics/SVG/1.1/DTD/svg11.dtd">
<svg version="1.1" xmlns="http://www.w3.org/2000/svg" xmlns:xlink="http://www.w3.org/1999/xlink" width="27.3633" height="23.8623">
 <g>
  <rect height="23.8623" opacity="0" width="27.3633" x="0" y="0"/>
  <path d="M1.94824 23.8623L5.28809 23.8623C6.5625 23.8623 7.23633 23.1885 7.23633 21.8994L7.23633 1.94824C7.23633 0.615234 6.5625 0 5.28809 0L1.94824 0C0.673828 0 0 0.673828 0 1.94824L0 21.8994C0 23.1885 0.673828 23.8623 1.94824 23.8623ZM25.2539 23.4229C26.4111 23.4229 27.3633 22.5586 27.3633 20.918L27.3633 2.92969C27.3633 1.28906 26.4111 0.410156 25.2539 0.410156C24.6533 0.410156 24.1699 0.600586 23.5693 0.952148L8.64258 9.74121C7.60254 10.3564 7.16309 11.0742 7.16309 11.9238C7.16309 12.7588 7.60254 13.4912 8.64258 14.1064L23.5693 22.8809C24.1699 23.2324 24.6533 23.4229 25.2539 23.4229Z" fill="#ffffff"/>
 </g>
</svg>
